[
  {
    "name": "Heuristik",
    "id": "heuristic",
    "settings": [
      ["STRONGEST_FIT", "Strongest Fit"],
      ["STRONGEST_FIT_DECREASING", "Strongest Fit Decreasing"],
      ["FIRST_FIT", "First Fit"],
      ["FIRST_FIT_DECREASING", "First Fit Decreasing"],
      ["WEAKEST_FIT", "Weakest Fit"],
      ["WEAKEST_FIT_DECREASING", "Weakest Fit Decreasing"],
      ["ALLOCATE_ENTITY_FROM_QUEUE", "Allocate Entity from Queue"],
      ["ALLOCATE_TO_VALUE_FROM_QUEUE", "Allocate to Value from Queue"],
      ["CHEAPEST_INSERTION", "Cheapest Insertion"],
      ["ALLOCATE_FROM_POOL", "Allocate from Pool"]
    ]
  },
  {
    "name": "Local Search",
    "id": "localSearch",
    "settings": [
      ["TABU_SEARCH", "Tabu Search"],
      ["HILL_CLIMBING", "Hill Climbing"],
      ["SIMULATED_ANNEALING", "Simulated Annealing"],
      ["LATE_ACCEPTANCE", "Late Acceptance"],
      ["GREAT_DELUGE", "Great Deluge"],
      ["VARIABLE_NEIGHBORHOOD_DESCENT", "Variable Neighborhood Descent"],
      ["CUSTOM", "Custom"]
    ]
  }
]
