{
  "plannerBenchmarkResult": {
    "name": "2021-07-22_124748",
    "aggregation": "false",
    "availableProcessors": "32",
    "loggingLevelOptaPlannerCore": "info",
    "loggingLevelDroolsCore": "info",
    "maxMemory": "32178700288",
    "optaPlannerVersion": "8.2.0.Final",
    "javaVersion": "Java 16.0.1 (Oracle Corporation)",
    "javaVM": "Java OpenJDK 64-Bit Server VM 16.0.1+9-24 (Oracle Corporation)",
    "operatingSystem": "Linux amd64 5.8.0-59-generic",
    "parallelBenchmarkCount": "17",
    "warmUpTimeMillisSpentLimit": "30",
    "solverBenchmarkResult": [
      {
        "name": "FIRST_FIT - HILL_CLIMBING",
        "subSingleCount": "1",
        "solverConfig": {
          "solutionClass": "ch.fhgr.domain.PathProblem",
          "entityClass": "ch.fhgr.domain.Visit",
          "scoreDirectorFactory": {
            "constraintProviderClass": "ch.fhgr.solver.PathConstraintProvider",
            "initializingScoreTrend": "ONLY_UP"
          },
          "termination": {
            "minutesSpentLimit": "60"
          },
          "constructionHeuristic": {
            "constructionHeuristicType": "FIRST_FIT"
          },
          "localSearch": {
            "localSearchType": "HILL_CLIMBING"
          }
        },
        "singleBenchmarkResult": {
          "subSingleBenchmarkResult": {
            "subSingleBenchmarkIndex": "0",
            "succeeded": "true",
            "score": {
              "_class": "org.optaplanner.core.api.score.buildin.hardsoftlong.HardSoftLongScore",
              "__text": "-3hard/2967300soft"
            },
            "timeMillisSpent": "3600000",
            "scoreCalculationCount": "21212000"
          },
          "timeMillisSpent": "-1",
          "scoreCalculationCount": "-1",
          "_id": "1"
        }
      },
      {
        "name": "FIRST_FIT - TABU_SEARCH",
        "subSingleCount": "1",
        "solverConfig": {
          "solutionClass": "ch.fhgr.domain.PathProblem",
          "entityClass": "ch.fhgr.domain.Visit",
          "scoreDirectorFactory": {
            "constraintProviderClass": "ch.fhgr.solver.PathConstraintProvider",
            "initializingScoreTrend": "ONLY_UP"
          },
          "termination": {
            "minutesSpentLimit": "60"
          },
          "constructionHeuristic": {
            "constructionHeuristicType": "FIRST_FIT"
          },
          "localSearch": {
            "localSearchType": "TABU_SEARCH"
          }
        },
        "singleBenchmarkResult": {
          "subSingleBenchmarkResult": {
            "subSingleBenchmarkIndex": "0",
            "succeeded": "true",
            "score": {
              "_class": "org.optaplanner.core.api.score.buildin.hardsoftlong.HardSoftLongScore",
              "__text": "0hard/3076300soft"
            },
            "timeMillisSpent": "3600000",
            "scoreCalculationCount": "16759959"
          },
          "timeMillisSpent": "-1",
          "scoreCalculationCount": "-1",
          "_id": "2"
        }
      },
      {
        "name": "FIRST_FIT - LATE_ACCEPTANCE",
        "subSingleCount": "1",
        "solverConfig": {
          "solutionClass": "ch.fhgr.domain.PathProblem",
          "entityClass": "ch.fhgr.domain.Visit",
          "scoreDirectorFactory": {
            "constraintProviderClass": "ch.fhgr.solver.PathConstraintProvider",
            "initializingScoreTrend": "ONLY_UP"
          },
          "termination": {
            "minutesSpentLimit": "60"
          },
          "constructionHeuristic": {
            "constructionHeuristicType": "FIRST_FIT"
          },
          "localSearch": {
            "localSearchType": "LATE_ACCEPTANCE"
          }
        },
        "singleBenchmarkResult": {
          "subSingleBenchmarkResult": {
            "subSingleBenchmarkIndex": "0",
            "succeeded": "true",
            "score": {
              "_class": "org.optaplanner.core.api.score.buildin.hardsoftlong.HardSoftLongScore",
              "__text": "-3hard/3083100soft"
            },
            "timeMillisSpent": "3600000",
            "scoreCalculationCount": "17753381"
          },
          "timeMillisSpent": "-1",
          "scoreCalculationCount": "-1",
          "_id": "3"
        }
      },
      {
        "name": "FIRST_FIT - GREAT_DELUGE",
        "subSingleCount": "1",
        "solverConfig": {
          "solutionClass": "ch.fhgr.domain.PathProblem",
          "entityClass": "ch.fhgr.domain.Visit",
          "scoreDirectorFactory": {
            "constraintProviderClass": "ch.fhgr.solver.PathConstraintProvider",
            "initializingScoreTrend": "ONLY_UP"
          },
          "termination": {
            "minutesSpentLimit": "60"
          },
          "constructionHeuristic": {
            "constructionHeuristicType": "FIRST_FIT"
          },
          "localSearch": {
            "localSearchType": "GREAT_DELUGE"
          }
        },
        "singleBenchmarkResult": {
          "subSingleBenchmarkResult": {
            "subSingleBenchmarkIndex": "0",
            "succeeded": "true",
            "score": {
              "_class": "org.optaplanner.core.api.score.buildin.hardsoftlong.HardSoftLongScore",
              "__text": "-1hard/2567500soft"
            },
            "timeMillisSpent": "3600000",
            "scoreCalculationCount": "19284833"
          },
          "timeMillisSpent": "-1",
          "scoreCalculationCount": "-1",
          "_id": "4"
        }
      },
      {
        "name": "FIRST_FIT - VARIABLE_NEIGHBORHOOD_DESCENT",
        "subSingleCount": "1",
        "solverConfig": {
          "solutionClass": "ch.fhgr.domain.PathProblem",
          "entityClass": "ch.fhgr.domain.Visit",
          "scoreDirectorFactory": {
            "constraintProviderClass": "ch.fhgr.solver.PathConstraintProvider",
            "initializingScoreTrend": "ONLY_UP"
          },
          "termination": {
            "minutesSpentLimit": "60"
          },
          "constructionHeuristic": {
            "constructionHeuristicType": "FIRST_FIT"
          },
          "localSearch": {
            "localSearchType": "VARIABLE_NEIGHBORHOOD_DESCENT"
          }
        },
        "singleBenchmarkResult": {
          "subSingleBenchmarkResult": {
            "subSingleBenchmarkIndex": "0",
            "succeeded": "true",
            "score": {
              "_class": "org.optaplanner.core.api.score.buildin.hardsoftlong.HardSoftLongScore",
              "__text": "-5hard/3007400soft"
            },
            "timeMillisSpent": "3600000",
            "scoreCalculationCount": "22664537"
          },
          "timeMillisSpent": "-1",
          "scoreCalculationCount": "-1",
          "_id": "5"
        }
      },
      {
        "name": "FIRST_FIT_DECREASING - HILL_CLIMBING",
        "subSingleCount": "1",
        "solverConfig": {
          "solutionClass": "ch.fhgr.domain.PathProblem",
          "entityClass": "ch.fhgr.domain.Visit",
          "scoreDirectorFactory": {
            "constraintProviderClass": "ch.fhgr.solver.PathConstraintProvider",
            "initializingScoreTrend": "ONLY_UP"
          },
          "termination": {
            "minutesSpentLimit": "60"
          },
          "constructionHeuristic": {
            "constructionHeuristicType": "FIRST_FIT_DECREASING"
          },
          "localSearch": {
            "localSearchType": "HILL_CLIMBING"
          }
        },
        "singleBenchmarkResult": {
          "subSingleBenchmarkResult": {
            "subSingleBenchmarkIndex": "0",
            "succeeded": "true",
            "score": {
              "_class": "org.optaplanner.core.api.score.buildin.hardsoftlong.HardSoftLongScore",
              "__text": "-5hard/2787700soft"
            },
            "timeMillisSpent": "3600000",
            "scoreCalculationCount": "18503430"
          },
          "timeMillisSpent": "-1",
          "scoreCalculationCount": "-1",
          "_id": "6"
        }
      },
      {
        "name": "FIRST_FIT_DECREASING - TABU_SEARCH",
        "subSingleCount": "1",
        "solverConfig": {
          "solutionClass": "ch.fhgr.domain.PathProblem",
          "entityClass": "ch.fhgr.domain.Visit",
          "scoreDirectorFactory": {
            "constraintProviderClass": "ch.fhgr.solver.PathConstraintProvider",
            "initializingScoreTrend": "ONLY_UP"
          },
          "termination": {
            "minutesSpentLimit": "60"
          },
          "constructionHeuristic": {
            "constructionHeuristicType": "FIRST_FIT_DECREASING"
          },
          "localSearch": {
            "localSearchType": "TABU_SEARCH"
          }
        },
        "singleBenchmarkResult": {
          "subSingleBenchmarkResult": {
            "subSingleBenchmarkIndex": "0",
            "succeeded": "true",
            "score": {
              "_class": "org.optaplanner.core.api.score.buildin.hardsoftlong.HardSoftLongScore",
              "__text": "-1hard/3184600soft"
            },
            "timeMillisSpent": "3600000",
            "scoreCalculationCount": "19923285"
          },
          "timeMillisSpent": "-1",
          "scoreCalculationCount": "-1",
          "_id": "7"
        }
      },
      {
        "name": "FIRST_FIT_DECREASING - LATE_ACCEPTANCE",
        "subSingleCount": "1",
        "solverConfig": {
          "solutionClass": "ch.fhgr.domain.PathProblem",
          "entityClass": "ch.fhgr.domain.Visit",
          "scoreDirectorFactory": {
            "constraintProviderClass": "ch.fhgr.solver.PathConstraintProvider",
            "initializingScoreTrend": "ONLY_UP"
          },
          "termination": {
            "minutesSpentLimit": "60"
          },
          "constructionHeuristic": {
            "constructionHeuristicType": "FIRST_FIT_DECREASING"
          },
          "localSearch": {
            "localSearchType": "LATE_ACCEPTANCE"
          }
        },
        "singleBenchmarkResult": {
          "subSingleBenchmarkResult": {
            "subSingleBenchmarkIndex": "0",
            "succeeded": "true",
            "score": {
              "_class": "org.optaplanner.core.api.score.buildin.hardsoftlong.HardSoftLongScore",
              "__text": "-2hard/2750300soft"
            },
            "timeMillisSpent": "3600000",
            "scoreCalculationCount": "20370174"
          },
          "timeMillisSpent": "-1",
          "scoreCalculationCount": "-1",
          "_id": "8"
        }
      },
      {
        "name": "FIRST_FIT_DECREASING - GREAT_DELUGE",
        "subSingleCount": "1",
        "solverConfig": {
          "solutionClass": "ch.fhgr.domain.PathProblem",
          "entityClass": "ch.fhgr.domain.Visit",
          "scoreDirectorFactory": {
            "constraintProviderClass": "ch.fhgr.solver.PathConstraintProvider",
            "initializingScoreTrend": "ONLY_UP"
          },
          "termination": {
            "minutesSpentLimit": "60"
          },
          "constructionHeuristic": {
            "constructionHeuristicType": "FIRST_FIT_DECREASING"
          },
          "localSearch": {
            "localSearchType": "GREAT_DELUGE"
          }
        },
        "singleBenchmarkResult": {
          "subSingleBenchmarkResult": {
            "subSingleBenchmarkIndex": "0",
            "succeeded": "true",
            "score": {
              "_class": "org.optaplanner.core.api.score.buildin.hardsoftlong.HardSoftLongScore",
              "__text": "-2hard/2946900soft"
            },
            "timeMillisSpent": "3600000",
            "scoreCalculationCount": "18175009"
          },
          "timeMillisSpent": "-1",
          "scoreCalculationCount": "-1",
          "_id": "9"
        }
      },
      {
        "name": "FIRST_FIT_DECREASING - VARIABLE_NEIGHBORHOOD_DESCENT",
        "subSingleCount": "1",
        "solverConfig": {
          "solutionClass": "ch.fhgr.domain.PathProblem",
          "entityClass": "ch.fhgr.domain.Visit",
          "scoreDirectorFactory": {
            "constraintProviderClass": "ch.fhgr.solver.PathConstraintProvider",
            "initializingScoreTrend": "ONLY_UP"
          },
          "termination": {
            "minutesSpentLimit": "60"
          },
          "constructionHeuristic": {
            "constructionHeuristicType": "FIRST_FIT_DECREASING"
          },
          "localSearch": {
            "localSearchType": "VARIABLE_NEIGHBORHOOD_DESCENT"
          }
        },
        "singleBenchmarkResult": {
          "subSingleBenchmarkResult": {
            "subSingleBenchmarkIndex": "0",
            "succeeded": "true",
            "score": {
              "_class": "org.optaplanner.core.api.score.buildin.hardsoftlong.HardSoftLongScore",
              "__text": "-6hard/2698200soft"
            },
            "timeMillisSpent": "3600000",
            "scoreCalculationCount": "21391275"
          },
          "timeMillisSpent": "-1",
          "scoreCalculationCount": "-1",
          "_id": "10"
        }
      },
      {
        "name": "WEAKEST_FIT - HILL_CLIMBING",
        "subSingleCount": "1",
        "solverConfig": {
          "solutionClass": "ch.fhgr.domain.PathProblem",
          "entityClass": "ch.fhgr.domain.Visit",
          "scoreDirectorFactory": {
            "constraintProviderClass": "ch.fhgr.solver.PathConstraintProvider",
            "initializingScoreTrend": "ONLY_UP"
          },
          "termination": {
            "minutesSpentLimit": "60"
          },
          "constructionHeuristic": {
            "constructionHeuristicType": "WEAKEST_FIT"
          },
          "localSearch": {
            "localSearchType": "HILL_CLIMBING"
          }
        },
        "singleBenchmarkResult": {
          "subSingleBenchmarkResult": {
            "subSingleBenchmarkIndex": "0",
            "succeeded": "true",
            "score": {
              "_class": "org.optaplanner.core.api.score.buildin.hardsoftlong.HardSoftLongScore",
              "__text": "-2hard/3116400soft"
            },
            "timeMillisSpent": "3600000",
            "scoreCalculationCount": "21575364"
          },
          "timeMillisSpent": "-1",
          "scoreCalculationCount": "-1",
          "_id": "11"
        }
      },
      {
        "name": "WEAKEST_FIT - TABU_SEARCH",
        "subSingleCount": "1",
        "solverConfig": {
          "solutionClass": "ch.fhgr.domain.PathProblem",
          "entityClass": "ch.fhgr.domain.Visit",
          "scoreDirectorFactory": {
            "constraintProviderClass": "ch.fhgr.solver.PathConstraintProvider",
            "initializingScoreTrend": "ONLY_UP"
          },
          "termination": {
            "minutesSpentLimit": "60"
          },
          "constructionHeuristic": {
            "constructionHeuristicType": "WEAKEST_FIT"
          },
          "localSearch": {
            "localSearchType": "TABU_SEARCH"
          }
        },
        "singleBenchmarkResult": {
          "subSingleBenchmarkResult": {
            "subSingleBenchmarkIndex": "0",
            "succeeded": "true",
            "score": {
              "_class": "org.optaplanner.core.api.score.buildin.hardsoftlong.HardSoftLongScore",
              "__text": "0hard/3076300soft"
            },
            "timeMillisSpent": "3600000",
            "scoreCalculationCount": "18717673"
          },
          "timeMillisSpent": "-1",
          "scoreCalculationCount": "-1",
          "_id": "12"
        }
      },
      {
        "name": "WEAKEST_FIT - LATE_ACCEPTANCE",
        "subSingleCount": "1",
        "solverConfig": {
          "solutionClass": "ch.fhgr.domain.PathProblem",
          "entityClass": "ch.fhgr.domain.Visit",
          "scoreDirectorFactory": {
            "constraintProviderClass": "ch.fhgr.solver.PathConstraintProvider",
            "initializingScoreTrend": "ONLY_UP"
          },
          "termination": {
            "minutesSpentLimit": "60"
          },
          "constructionHeuristic": {
            "constructionHeuristicType": "WEAKEST_FIT"
          },
          "localSearch": {
            "localSearchType": "LATE_ACCEPTANCE"
          }
        },
        "singleBenchmarkResult": {
          "subSingleBenchmarkResult": {
            "subSingleBenchmarkIndex": "0",
            "succeeded": "true",
            "score": {
              "_class": "org.optaplanner.core.api.score.buildin.hardsoftlong.HardSoftLongScore",
              "__text": "-2hard/2745000soft"
            },
            "timeMillisSpent": "3600000",
            "scoreCalculationCount": "16664254"
          },
          "timeMillisSpent": "-1",
          "scoreCalculationCount": "-1",
          "_id": "13"
        }
      },
      {
        "name": "WEAKEST_FIT - GREAT_DELUGE",
        "subSingleCount": "1",
        "solverConfig": {
          "solutionClass": "ch.fhgr.domain.PathProblem",
          "entityClass": "ch.fhgr.domain.Visit",
          "scoreDirectorFactory": {
            "constraintProviderClass": "ch.fhgr.solver.PathConstraintProvider",
            "initializingScoreTrend": "ONLY_UP"
          },
          "termination": {
            "minutesSpentLimit": "60"
          },
          "constructionHeuristic": {
            "constructionHeuristicType": "WEAKEST_FIT"
          },
          "localSearch": {
            "localSearchType": "GREAT_DELUGE"
          }
        },
        "singleBenchmarkResult": {
          "subSingleBenchmarkResult": {
            "subSingleBenchmarkIndex": "0",
            "succeeded": "true",
            "score": {
              "_class": "org.optaplanner.core.api.score.buildin.hardsoftlong.HardSoftLongScore",
              "__text": "-2hard/2714600soft"
            },
            "timeMillisSpent": "3600000",
            "scoreCalculationCount": "18568199"
          },
          "timeMillisSpent": "-1",
          "scoreCalculationCount": "-1",
          "_id": "14"
        }
      },
      {
        "name": "WEAKEST_FIT - VARIABLE_NEIGHBORHOOD_DESCENT",
        "subSingleCount": "1",
        "solverConfig": {
          "solutionClass": "ch.fhgr.domain.PathProblem",
          "entityClass": "ch.fhgr.domain.Visit",
          "scoreDirectorFactory": {
            "constraintProviderClass": "ch.fhgr.solver.PathConstraintProvider",
            "initializingScoreTrend": "ONLY_UP"
          },
          "termination": {
            "minutesSpentLimit": "60"
          },
          "constructionHeuristic": {
            "constructionHeuristicType": "WEAKEST_FIT"
          },
          "localSearch": {
            "localSearchType": "VARIABLE_NEIGHBORHOOD_DESCENT"
          }
        },
        "singleBenchmarkResult": {
          "subSingleBenchmarkResult": {
            "subSingleBenchmarkIndex": "0",
            "succeeded": "true",
            "score": {
              "_class": "org.optaplanner.core.api.score.buildin.hardsoftlong.HardSoftLongScore",
              "__text": "-3hard/3075800soft"
            },
            "timeMillisSpent": "3600000",
            "scoreCalculationCount": "22288128"
          },
          "timeMillisSpent": "-1",
          "scoreCalculationCount": "-1",
          "_id": "15"
        }
      },
      {
        "name": "WEAKEST_FIT_DECREASING - HILL_CLIMBING",
        "subSingleCount": "1",
        "solverConfig": {
          "solutionClass": "ch.fhgr.domain.PathProblem",
          "entityClass": "ch.fhgr.domain.Visit",
          "scoreDirectorFactory": {
            "constraintProviderClass": "ch.fhgr.solver.PathConstraintProvider",
            "initializingScoreTrend": "ONLY_UP"
          },
          "termination": {
            "minutesSpentLimit": "60"
          },
          "constructionHeuristic": {
            "constructionHeuristicType": "WEAKEST_FIT_DECREASING"
          },
          "localSearch": {
            "localSearchType": "HILL_CLIMBING"
          }
        },
        "singleBenchmarkResult": {
          "subSingleBenchmarkResult": {
            "subSingleBenchmarkIndex": "0",
            "succeeded": "true",
            "score": {
              "_class": "org.optaplanner.core.api.score.buildin.hardsoftlong.HardSoftLongScore",
              "__text": "-7hard/2856200soft"
            },
            "timeMillisSpent": "3600000",
            "scoreCalculationCount": "16470041"
          },
          "timeMillisSpent": "-1",
          "scoreCalculationCount": "-1",
          "_id": "16"
        }
      },
      {
        "name": "WEAKEST_FIT_DECREASING - TABU_SEARCH",
        "subSingleCount": "1",
        "solverConfig": {
          "solutionClass": "ch.fhgr.domain.PathProblem",
          "entityClass": "ch.fhgr.domain.Visit",
          "scoreDirectorFactory": {
            "constraintProviderClass": "ch.fhgr.solver.PathConstraintProvider",
            "initializingScoreTrend": "ONLY_UP"
          },
          "termination": {
            "minutesSpentLimit": "60"
          },
          "constructionHeuristic": {
            "constructionHeuristicType": "WEAKEST_FIT_DECREASING"
          },
          "localSearch": {
            "localSearchType": "TABU_SEARCH"
          }
        },
        "singleBenchmarkResult": {
          "subSingleBenchmarkResult": {
            "subSingleBenchmarkIndex": "0",
            "succeeded": "true",
            "score": {
              "_class": "org.optaplanner.core.api.score.buildin.hardsoftlong.HardSoftLongScore",
              "__text": "-1hard/3184600soft"
            },
            "timeMillisSpent": "3600000",
            "scoreCalculationCount": "16811654"
          },
          "timeMillisSpent": "-1",
          "scoreCalculationCount": "-1",
          "_id": "17"
        }
      },
      {
        "name": "WEAKEST_FIT_DECREASING - LATE_ACCEPTANCE",
        "subSingleCount": "1",
        "solverConfig": {
          "solutionClass": "ch.fhgr.domain.PathProblem",
          "entityClass": "ch.fhgr.domain.Visit",
          "scoreDirectorFactory": {
            "constraintProviderClass": "ch.fhgr.solver.PathConstraintProvider",
            "initializingScoreTrend": "ONLY_UP"
          },
          "termination": {
            "minutesSpentLimit": "60"
          },
          "constructionHeuristic": {
            "constructionHeuristicType": "WEAKEST_FIT_DECREASING"
          },
          "localSearch": {
            "localSearchType": "LATE_ACCEPTANCE"
          }
        },
        "singleBenchmarkResult": {
          "subSingleBenchmarkResult": {
            "subSingleBenchmarkIndex": "0",
            "succeeded": "true",
            "score": {
              "_class": "org.optaplanner.core.api.score.buildin.hardsoftlong.HardSoftLongScore",
              "__text": "-3hard/2909100soft"
            },
            "timeMillisSpent": "3600000",
            "scoreCalculationCount": "19273503"
          },
          "timeMillisSpent": "-1",
          "scoreCalculationCount": "-1",
          "_id": "18"
        }
      },
      {
        "name": "WEAKEST_FIT_DECREASING - GREAT_DELUGE",
        "subSingleCount": "1",
        "solverConfig": {
          "solutionClass": "ch.fhgr.domain.PathProblem",
          "entityClass": "ch.fhgr.domain.Visit",
          "scoreDirectorFactory": {
            "constraintProviderClass": "ch.fhgr.solver.PathConstraintProvider",
            "initializingScoreTrend": "ONLY_UP"
          },
          "termination": {
            "minutesSpentLimit": "60"
          },
          "constructionHeuristic": {
            "constructionHeuristicType": "WEAKEST_FIT_DECREASING"
          },
          "localSearch": {
            "localSearchType": "GREAT_DELUGE"
          }
        },
        "singleBenchmarkResult": {
          "subSingleBenchmarkResult": {
            "subSingleBenchmarkIndex": "0",
            "succeeded": "true",
            "score": {
              "_class": "org.optaplanner.core.api.score.buildin.hardsoftlong.HardSoftLongScore",
              "__text": "-20hard/1613400soft"
            },
            "timeMillisSpent": "3600000",
            "scoreCalculationCount": "15590703"
          },
          "timeMillisSpent": "-1",
          "scoreCalculationCount": "-1",
          "_id": "19"
        }
      },
      {
        "name": "WEAKEST_FIT_DECREASING - VARIABLE_NEIGHBORHOOD_DESCENT",
        "subSingleCount": "1",
        "solverConfig": {
          "solutionClass": "ch.fhgr.domain.PathProblem",
          "entityClass": "ch.fhgr.domain.Visit",
          "scoreDirectorFactory": {
            "constraintProviderClass": "ch.fhgr.solver.PathConstraintProvider",
            "initializingScoreTrend": "ONLY_UP"
          },
          "termination": {
            "minutesSpentLimit": "60"
          },
          "constructionHeuristic": {
            "constructionHeuristicType": "WEAKEST_FIT_DECREASING"
          },
          "localSearch": {
            "localSearchType": "VARIABLE_NEIGHBORHOOD_DESCENT"
          }
        },
        "singleBenchmarkResult": {
          "subSingleBenchmarkResult": {
            "subSingleBenchmarkIndex": "0",
            "succeeded": "true",
            "score": {
              "_class": "org.optaplanner.core.api.score.buildin.hardsoftlong.HardSoftLongScore",
              "__text": "-6hard/2974100soft"
            },
            "timeMillisSpent": "3600000",
            "scoreCalculationCount": "21705385"
          },
          "timeMillisSpent": "-1",
          "scoreCalculationCount": "-1",
          "_id": "20"
        }
      },
      {
        "name": "STRONGEST_FIT - HILL_CLIMBING",
        "subSingleCount": "1",
        "solverConfig": {
          "solutionClass": "ch.fhgr.domain.PathProblem",
          "entityClass": "ch.fhgr.domain.Visit",
          "scoreDirectorFactory": {
            "constraintProviderClass": "ch.fhgr.solver.PathConstraintProvider",
            "initializingScoreTrend": "ONLY_UP"
          },
          "termination": {
            "minutesSpentLimit": "60"
          },
          "constructionHeuristic": {
            "constructionHeuristicType": "STRONGEST_FIT"
          },
          "localSearch": {
            "localSearchType": "HILL_CLIMBING"
          }
        },
        "singleBenchmarkResult": {
          "subSingleBenchmarkResult": {
            "subSingleBenchmarkIndex": "0",
            "succeeded": "true",
            "score": {
              "_class": "org.optaplanner.core.api.score.buildin.hardsoftlong.HardSoftLongScore",
              "__text": "-2hard/3116400soft"
            },
            "timeMillisSpent": "3600000",
            "scoreCalculationCount": "16219802"
          },
          "timeMillisSpent": "-1",
          "scoreCalculationCount": "-1",
          "_id": "21"
        }
      },
      {
        "name": "STRONGEST_FIT - TABU_SEARCH",
        "subSingleCount": "1",
        "solverConfig": {
          "solutionClass": "ch.fhgr.domain.PathProblem",
          "entityClass": "ch.fhgr.domain.Visit",
          "scoreDirectorFactory": {
            "constraintProviderClass": "ch.fhgr.solver.PathConstraintProvider",
            "initializingScoreTrend": "ONLY_UP"
          },
          "termination": {
            "minutesSpentLimit": "60"
          },
          "constructionHeuristic": {
            "constructionHeuristicType": "STRONGEST_FIT"
          },
          "localSearch": {
            "localSearchType": "TABU_SEARCH"
          }
        },
        "singleBenchmarkResult": {
          "subSingleBenchmarkResult": {
            "subSingleBenchmarkIndex": "0",
            "succeeded": "true",
            "score": {
              "_class": "org.optaplanner.core.api.score.buildin.hardsoftlong.HardSoftLongScore",
              "__text": "0hard/3076300soft"
            },
            "timeMillisSpent": "3600000",
            "scoreCalculationCount": "18709539"
          },
          "timeMillisSpent": "-1",
          "scoreCalculationCount": "-1",
          "_id": "22"
        }
      },
      {
        "name": "STRONGEST_FIT - LATE_ACCEPTANCE",
        "subSingleCount": "1",
        "solverConfig": {
          "solutionClass": "ch.fhgr.domain.PathProblem",
          "entityClass": "ch.fhgr.domain.Visit",
          "scoreDirectorFactory": {
            "constraintProviderClass": "ch.fhgr.solver.PathConstraintProvider",
            "initializingScoreTrend": "ONLY_UP"
          },
          "termination": {
            "minutesSpentLimit": "60"
          },
          "constructionHeuristic": {
            "constructionHeuristicType": "STRONGEST_FIT"
          },
          "localSearch": {
            "localSearchType": "LATE_ACCEPTANCE"
          }
        },
        "singleBenchmarkResult": {
          "subSingleBenchmarkResult": {
            "subSingleBenchmarkIndex": "0",
            "succeeded": "true",
            "score": {
              "_class": "org.optaplanner.core.api.score.buildin.hardsoftlong.HardSoftLongScore",
              "__text": "-2hard/2745000soft"
            },
            "timeMillisSpent": "3600000",
            "scoreCalculationCount": "16495082"
          },
          "timeMillisSpent": "-1",
          "scoreCalculationCount": "-1",
          "_id": "23"
        }
      },
      {
        "name": "STRONGEST_FIT - GREAT_DELUGE",
        "subSingleCount": "1",
        "solverConfig": {
          "solutionClass": "ch.fhgr.domain.PathProblem",
          "entityClass": "ch.fhgr.domain.Visit",
          "scoreDirectorFactory": {
            "constraintProviderClass": "ch.fhgr.solver.PathConstraintProvider",
            "initializingScoreTrend": "ONLY_UP"
          },
          "termination": {
            "minutesSpentLimit": "60"
          },
          "constructionHeuristic": {
            "constructionHeuristicType": "STRONGEST_FIT"
          },
          "localSearch": {
            "localSearchType": "GREAT_DELUGE"
          }
        },
        "singleBenchmarkResult": {
          "subSingleBenchmarkResult": {
            "subSingleBenchmarkIndex": "0",
            "succeeded": "true",
            "score": {
              "_class": "org.optaplanner.core.api.score.buildin.hardsoftlong.HardSoftLongScore",
              "__text": "-3hard/3122900soft"
            },
            "timeMillisSpent": "3600000",
            "scoreCalculationCount": "16411590"
          },
          "timeMillisSpent": "-1",
          "scoreCalculationCount": "-1",
          "_id": "24"
        }
      },
      {
        "name": "STRONGEST_FIT - VARIABLE_NEIGHBORHOOD_DESCENT",
        "subSingleCount": "1",
        "solverConfig": {
          "solutionClass": "ch.fhgr.domain.PathProblem",
          "entityClass": "ch.fhgr.domain.Visit",
          "scoreDirectorFactory": {
            "constraintProviderClass": "ch.fhgr.solver.PathConstraintProvider",
            "initializingScoreTrend": "ONLY_UP"
          },
          "termination": {
            "minutesSpentLimit": "60"
          },
          "constructionHeuristic": {
            "constructionHeuristicType": "STRONGEST_FIT"
          },
          "localSearch": {
            "localSearchType": "VARIABLE_NEIGHBORHOOD_DESCENT"
          }
        },
        "singleBenchmarkResult": {
          "subSingleBenchmarkResult": {
            "subSingleBenchmarkIndex": "0",
            "succeeded": "true",
            "score": {
              "_class": "org.optaplanner.core.api.score.buildin.hardsoftlong.HardSoftLongScore",
              "__text": "-3hard/3075800soft"
            },
            "timeMillisSpent": "3600000",
            "scoreCalculationCount": "20351269"
          },
          "timeMillisSpent": "-1",
          "scoreCalculationCount": "-1",
          "_id": "25"
        }
      },
      {
        "name": "STRONGEST_FIT_DECREASING - HILL_CLIMBING",
        "subSingleCount": "1",
        "solverConfig": {
          "solutionClass": "ch.fhgr.domain.PathProblem",
          "entityClass": "ch.fhgr.domain.Visit",
          "scoreDirectorFactory": {
            "constraintProviderClass": "ch.fhgr.solver.PathConstraintProvider",
            "initializingScoreTrend": "ONLY_UP"
          },
          "termination": {
            "minutesSpentLimit": "60"
          },
          "constructionHeuristic": {
            "constructionHeuristicType": "STRONGEST_FIT_DECREASING"
          },
          "localSearch": {
            "localSearchType": "HILL_CLIMBING"
          }
        },
        "singleBenchmarkResult": {
          "subSingleBenchmarkResult": {
            "subSingleBenchmarkIndex": "0",
            "succeeded": "true",
            "score": {
              "_class": "org.optaplanner.core.api.score.buildin.hardsoftlong.HardSoftLongScore",
              "__text": "-7hard/2856200soft"
            },
            "timeMillisSpent": "3600000",
            "scoreCalculationCount": "16820968"
          },
          "timeMillisSpent": "-1",
          "scoreCalculationCount": "-1",
          "_id": "26"
        }
      },
      {
        "name": "STRONGEST_FIT_DECREASING - TABU_SEARCH",
        "subSingleCount": "1",
        "solverConfig": {
          "solutionClass": "ch.fhgr.domain.PathProblem",
          "entityClass": "ch.fhgr.domain.Visit",
          "scoreDirectorFactory": {
            "constraintProviderClass": "ch.fhgr.solver.PathConstraintProvider",
            "initializingScoreTrend": "ONLY_UP"
          },
          "termination": {
            "minutesSpentLimit": "60"
          },
          "constructionHeuristic": {
            "constructionHeuristicType": "STRONGEST_FIT_DECREASING"
          },
          "localSearch": {
            "localSearchType": "TABU_SEARCH"
          }
        },
        "singleBenchmarkResult": {
          "subSingleBenchmarkResult": {
            "subSingleBenchmarkIndex": "0",
            "succeeded": "true",
            "score": {
              "_class": "org.optaplanner.core.api.score.buildin.hardsoftlong.HardSoftLongScore",
              "__text": "-1hard/3184600soft"
            },
            "timeMillisSpent": "3600000",
            "scoreCalculationCount": "19243611"
          },
          "timeMillisSpent": "-1",
          "scoreCalculationCount": "-1",
          "_id": "27"
        }
      },
      {
        "name": "STRONGEST_FIT_DECREASING - LATE_ACCEPTANCE",
        "subSingleCount": "1",
        "solverConfig": {
          "solutionClass": "ch.fhgr.domain.PathProblem",
          "entityClass": "ch.fhgr.domain.Visit",
          "scoreDirectorFactory": {
            "constraintProviderClass": "ch.fhgr.solver.PathConstraintProvider",
            "initializingScoreTrend": "ONLY_UP"
          },
          "termination": {
            "minutesSpentLimit": "60"
          },
          "constructionHeuristic": {
            "constructionHeuristicType": "STRONGEST_FIT_DECREASING"
          },
          "localSearch": {
            "localSearchType": "LATE_ACCEPTANCE"
          }
        },
        "singleBenchmarkResult": {
          "subSingleBenchmarkResult": {
            "subSingleBenchmarkIndex": "0",
            "succeeded": "true",
            "score": {
              "_class": "org.optaplanner.core.api.score.buildin.hardsoftlong.HardSoftLongScore",
              "__text": "-3hard/2909100soft"
            },
            "timeMillisSpent": "3600000",
            "scoreCalculationCount": "19733756"
          },
          "timeMillisSpent": "-1",
          "scoreCalculationCount": "-1",
          "_id": "28"
        }
      },
      {
        "name": "STRONGEST_FIT_DECREASING - GREAT_DELUGE",
        "subSingleCount": "1",
        "solverConfig": {
          "solutionClass": "ch.fhgr.domain.PathProblem",
          "entityClass": "ch.fhgr.domain.Visit",
          "scoreDirectorFactory": {
            "constraintProviderClass": "ch.fhgr.solver.PathConstraintProvider",
            "initializingScoreTrend": "ONLY_UP"
          },
          "termination": {
            "minutesSpentLimit": "60"
          },
          "constructionHeuristic": {
            "constructionHeuristicType": "STRONGEST_FIT_DECREASING"
          },
          "localSearch": {
            "localSearchType": "GREAT_DELUGE"
          }
        },
        "singleBenchmarkResult": {
          "subSingleBenchmarkResult": {
            "subSingleBenchmarkIndex": "0",
            "succeeded": "true",
            "score": {
              "_class": "org.optaplanner.core.api.score.buildin.hardsoftlong.HardSoftLongScore",
              "__text": "-20hard/1613400soft"
            },
            "timeMillisSpent": "3600000",
            "scoreCalculationCount": "14694236"
          },
          "timeMillisSpent": "-1",
          "scoreCalculationCount": "-1",
          "_id": "29"
        }
      },
      {
        "name": "STRONGEST_FIT_DECREASING - VARIABLE_NEIGHBORHOOD_DESCENT",
        "subSingleCount": "1",
        "solverConfig": {
          "solutionClass": "ch.fhgr.domain.PathProblem",
          "entityClass": "ch.fhgr.domain.Visit",
          "scoreDirectorFactory": {
            "constraintProviderClass": "ch.fhgr.solver.PathConstraintProvider",
            "initializingScoreTrend": "ONLY_UP"
          },
          "termination": {
            "minutesSpentLimit": "60"
          },
          "constructionHeuristic": {
            "constructionHeuristicType": "STRONGEST_FIT_DECREASING"
          },
          "localSearch": {
            "localSearchType": "VARIABLE_NEIGHBORHOOD_DESCENT"
          }
        },
        "singleBenchmarkResult": {
          "subSingleBenchmarkResult": {
            "subSingleBenchmarkIndex": "0",
            "succeeded": "true",
            "score": {
              "_class": "org.optaplanner.core.api.score.buildin.hardsoftlong.HardSoftLongScore",
              "__text": "-6hard/2974100soft"
            },
            "timeMillisSpent": "3600000",
            "scoreCalculationCount": "24106114"
          },
          "timeMillisSpent": "-1",
          "scoreCalculationCount": "-1",
          "_id": "30"
        }
      },
      {
        "name": "CHEAPEST_INSERTION - HILL_CLIMBING",
        "subSingleCount": "1",
        "solverConfig": {
          "solutionClass": "ch.fhgr.domain.PathProblem",
          "entityClass": "ch.fhgr.domain.Visit",
          "scoreDirectorFactory": {
            "constraintProviderClass": "ch.fhgr.solver.PathConstraintProvider",
            "initializingScoreTrend": "ONLY_UP"
          },
          "termination": {
            "minutesSpentLimit": "60"
          },
          "constructionHeuristic": {
            "constructionHeuristicType": "CHEAPEST_INSERTION"
          },
          "localSearch": {
            "localSearchType": "HILL_CLIMBING"
          }
        },
        "singleBenchmarkResult": {
          "subSingleBenchmarkResult": {
            "subSingleBenchmarkIndex": "0",
            "succeeded": "true",
            "score": {
              "_class": "org.optaplanner.core.api.score.buildin.hardsoftlong.HardSoftLongScore",
              "__text": "-5hard/3123000soft"
            },
            "timeMillisSpent": "3600000",
            "scoreCalculationCount": "19979961"
          },
          "timeMillisSpent": "-1",
          "scoreCalculationCount": "-1",
          "_id": "31"
        }
      },
      {
        "name": "CHEAPEST_INSERTION - TABU_SEARCH",
        "subSingleCount": "1",
        "solverConfig": {
          "solutionClass": "ch.fhgr.domain.PathProblem",
          "entityClass": "ch.fhgr.domain.Visit",
          "scoreDirectorFactory": {
            "constraintProviderClass": "ch.fhgr.solver.PathConstraintProvider",
            "initializingScoreTrend": "ONLY_UP"
          },
          "termination": {
            "minutesSpentLimit": "60"
          },
          "constructionHeuristic": {
            "constructionHeuristicType": "CHEAPEST_INSERTION"
          },
          "localSearch": {
            "localSearchType": "TABU_SEARCH"
          }
        },
        "singleBenchmarkResult": {
          "subSingleBenchmarkResult": {
            "subSingleBenchmarkIndex": "0",
            "succeeded": "true",
            "score": {
              "_class": "org.optaplanner.core.api.score.buildin.hardsoftlong.HardSoftLongScore",
              "__text": "-1hard/3184600soft"
            },
            "timeMillisSpent": "3600000",
            "scoreCalculationCount": "18253607"
          },
          "timeMillisSpent": "-1",
          "scoreCalculationCount": "-1",
          "_id": "32"
        }
      },
      {
        "name": "CHEAPEST_INSERTION - LATE_ACCEPTANCE",
        "subSingleCount": "1",
        "solverConfig": {
          "solutionClass": "ch.fhgr.domain.PathProblem",
          "entityClass": "ch.fhgr.domain.Visit",
          "scoreDirectorFactory": {
            "constraintProviderClass": "ch.fhgr.solver.PathConstraintProvider",
            "initializingScoreTrend": "ONLY_UP"
          },
          "termination": {
            "minutesSpentLimit": "60"
          },
          "constructionHeuristic": {
            "constructionHeuristicType": "CHEAPEST_INSERTION"
          },
          "localSearch": {
            "localSearchType": "LATE_ACCEPTANCE"
          }
        },
        "singleBenchmarkResult": {
          "subSingleBenchmarkResult": {
            "subSingleBenchmarkIndex": "0",
            "succeeded": "true",
            "score": {
              "_class": "org.optaplanner.core.api.score.buildin.hardsoftlong.HardSoftLongScore",
              "__text": "-3hard/2941300soft"
            },
            "timeMillisSpent": "3600000",
            "scoreCalculationCount": "17523310"
          },
          "timeMillisSpent": "-1",
          "scoreCalculationCount": "-1",
          "_id": "33"
        }
      },
      {
        "name": "CHEAPEST_INSERTION - GREAT_DELUGE",
        "subSingleCount": "1",
        "solverConfig": {
          "solutionClass": "ch.fhgr.domain.PathProblem",
          "entityClass": "ch.fhgr.domain.Visit",
          "scoreDirectorFactory": {
            "constraintProviderClass": "ch.fhgr.solver.PathConstraintProvider",
            "initializingScoreTrend": "ONLY_UP"
          },
          "termination": {
            "minutesSpentLimit": "60"
          },
          "constructionHeuristic": {
            "constructionHeuristicType": "CHEAPEST_INSERTION"
          },
          "localSearch": {
            "localSearchType": "GREAT_DELUGE"
          }
        },
        "singleBenchmarkResult": {
          "subSingleBenchmarkResult": {
            "subSingleBenchmarkIndex": "0",
            "succeeded": "true",
            "score": {
              "_class": "org.optaplanner.core.api.score.buildin.hardsoftlong.HardSoftLongScore",
              "__text": "-3hard/3058300soft"
            },
            "timeMillisSpent": "3600000",
            "scoreCalculationCount": "18947473"
          },
          "timeMillisSpent": "-1",
          "scoreCalculationCount": "-1",
          "_id": "34"
        }
      },
      {
        "name": "CHEAPEST_INSERTION - VARIABLE_NEIGHBORHOOD_DESCENT",
        "subSingleCount": "1",
        "solverConfig": {
          "solutionClass": "ch.fhgr.domain.PathProblem",
          "entityClass": "ch.fhgr.domain.Visit",
          "scoreDirectorFactory": {
            "constraintProviderClass": "ch.fhgr.solver.PathConstraintProvider",
            "initializingScoreTrend": "ONLY_UP"
          },
          "termination": {
            "minutesSpentLimit": "60"
          },
          "constructionHeuristic": {
            "constructionHeuristicType": "CHEAPEST_INSERTION"
          },
          "localSearch": {
            "localSearchType": "VARIABLE_NEIGHBORHOOD_DESCENT"
          }
        },
        "singleBenchmarkResult": {
          "subSingleBenchmarkResult": {
            "subSingleBenchmarkIndex": "0",
            "succeeded": "true",
            "score": {
              "_class": "org.optaplanner.core.api.score.buildin.hardsoftlong.HardSoftLongScore",
              "__text": "-5hard/3123000soft"
            },
            "timeMillisSpent": "3600000",
            "scoreCalculationCount": "82862351"
          },
          "timeMillisSpent": "-1",
          "scoreCalculationCount": "-1",
          "_id": "35"
        }
      }
    ],
    "unifiedProblemBenchmarkResult": [
      {
        "name": "Problem_0",
        "instanceProblemProvider": "",
        "writeOutputSolutionEnabled": "false",
        "bestScoreProblemStatistic": {
          "problemStatisticType": "BEST_SCORE"
        },
        "singleBenchmarkResult": "1",
        "entityCount": "36",
        "variableCount": "36",
        "maximumValueCount": "37",
        "problemScale": "1332",
        "inputSolutionLoadingTimeMillisSpent": "0"
      },
      {
        "name": "Problem_0",
        "instanceProblemProvider": "",
        "writeOutputSolutionEnabled": "false",
        "bestScoreProblemStatistic": {
          "problemStatisticType": "BEST_SCORE"
        },
        "singleBenchmarkResult": "2",
        "entityCount": "36",
        "variableCount": "36",
        "maximumValueCount": "37",
        "problemScale": "1332",
        "inputSolutionLoadingTimeMillisSpent": "0"
      },
      {
        "name": "Problem_0",
        "instanceProblemProvider": "",
        "writeOutputSolutionEnabled": "false",
        "bestScoreProblemStatistic": {
          "problemStatisticType": "BEST_SCORE"
        },
        "singleBenchmarkResult": "3",
        "entityCount": "36",
        "variableCount": "36",
        "maximumValueCount": "37",
        "problemScale": "1332",
        "inputSolutionLoadingTimeMillisSpent": "0"
      },
      {
        "name": "Problem_0",
        "instanceProblemProvider": "",
        "writeOutputSolutionEnabled": "false",
        "bestScoreProblemStatistic": {
          "problemStatisticType": "BEST_SCORE"
        },
        "singleBenchmarkResult": "4",
        "entityCount": "36",
        "variableCount": "36",
        "maximumValueCount": "37",
        "problemScale": "1332",
        "inputSolutionLoadingTimeMillisSpent": "0"
      },
      {
        "name": "Problem_0",
        "instanceProblemProvider": "",
        "writeOutputSolutionEnabled": "false",
        "bestScoreProblemStatistic": {
          "problemStatisticType": "BEST_SCORE"
        },
        "singleBenchmarkResult": "5",
        "entityCount": "36",
        "variableCount": "36",
        "maximumValueCount": "37",
        "problemScale": "1332",
        "inputSolutionLoadingTimeMillisSpent": "0"
      },
      {
        "name": "Problem_0",
        "instanceProblemProvider": "",
        "writeOutputSolutionEnabled": "false",
        "bestScoreProblemStatistic": {
          "problemStatisticType": "BEST_SCORE"
        },
        "singleBenchmarkResult": "6",
        "entityCount": "36",
        "variableCount": "36",
        "maximumValueCount": "37",
        "problemScale": "1332",
        "inputSolutionLoadingTimeMillisSpent": "0"
      },
      {
        "name": "Problem_0",
        "instanceProblemProvider": "",
        "writeOutputSolutionEnabled": "false",
        "bestScoreProblemStatistic": {
          "problemStatisticType": "BEST_SCORE"
        },
        "singleBenchmarkResult": "7",
        "entityCount": "36",
        "variableCount": "36",
        "maximumValueCount": "37",
        "problemScale": "1332",
        "inputSolutionLoadingTimeMillisSpent": "0"
      },
      {
        "name": "Problem_0",
        "instanceProblemProvider": "",
        "writeOutputSolutionEnabled": "false",
        "bestScoreProblemStatistic": {
          "problemStatisticType": "BEST_SCORE"
        },
        "singleBenchmarkResult": "8",
        "entityCount": "36",
        "variableCount": "36",
        "maximumValueCount": "37",
        "problemScale": "1332",
        "inputSolutionLoadingTimeMillisSpent": "1"
      },
      {
        "name": "Problem_0",
        "instanceProblemProvider": "",
        "writeOutputSolutionEnabled": "false",
        "bestScoreProblemStatistic": {
          "problemStatisticType": "BEST_SCORE"
        },
        "singleBenchmarkResult": "9",
        "entityCount": "36",
        "variableCount": "36",
        "maximumValueCount": "37",
        "problemScale": "1332",
        "inputSolutionLoadingTimeMillisSpent": "1"
      },
      {
        "name": "Problem_0",
        "instanceProblemProvider": "",
        "writeOutputSolutionEnabled": "false",
        "bestScoreProblemStatistic": {
          "problemStatisticType": "BEST_SCORE"
        },
        "singleBenchmarkResult": "10",
        "entityCount": "36",
        "variableCount": "36",
        "maximumValueCount": "37",
        "problemScale": "1332",
        "inputSolutionLoadingTimeMillisSpent": "0"
      },
      {
        "name": "Problem_0",
        "instanceProblemProvider": "",
        "writeOutputSolutionEnabled": "false",
        "bestScoreProblemStatistic": {
          "problemStatisticType": "BEST_SCORE"
        },
        "singleBenchmarkResult": "11",
        "entityCount": "36",
        "variableCount": "36",
        "maximumValueCount": "37",
        "problemScale": "1332",
        "inputSolutionLoadingTimeMillisSpent": "0"
      },
      {
        "name": "Problem_0",
        "instanceProblemProvider": "",
        "writeOutputSolutionEnabled": "false",
        "bestScoreProblemStatistic": {
          "problemStatisticType": "BEST_SCORE"
        },
        "singleBenchmarkResult": "12",
        "entityCount": "36",
        "variableCount": "36",
        "maximumValueCount": "37",
        "problemScale": "1332",
        "inputSolutionLoadingTimeMillisSpent": "0"
      },
      {
        "name": "Problem_0",
        "instanceProblemProvider": "",
        "writeOutputSolutionEnabled": "false",
        "bestScoreProblemStatistic": {
          "problemStatisticType": "BEST_SCORE"
        },
        "singleBenchmarkResult": "13",
        "entityCount": "36",
        "variableCount": "36",
        "maximumValueCount": "37",
        "problemScale": "1332",
        "inputSolutionLoadingTimeMillisSpent": "0"
      },
      {
        "name": "Problem_0",
        "instanceProblemProvider": "",
        "writeOutputSolutionEnabled": "false",
        "bestScoreProblemStatistic": {
          "problemStatisticType": "BEST_SCORE"
        },
        "singleBenchmarkResult": "14",
        "entityCount": "36",
        "variableCount": "36",
        "maximumValueCount": "37",
        "problemScale": "1332",
        "inputSolutionLoadingTimeMillisSpent": "0"
      },
      {
        "name": "Problem_0",
        "instanceProblemProvider": "",
        "writeOutputSolutionEnabled": "false",
        "bestScoreProblemStatistic": {
          "problemStatisticType": "BEST_SCORE"
        },
        "singleBenchmarkResult": "15",
        "entityCount": "36",
        "variableCount": "36",
        "maximumValueCount": "37",
        "problemScale": "1332",
        "inputSolutionLoadingTimeMillisSpent": "1"
      },
      {
        "name": "Problem_0",
        "instanceProblemProvider": "",
        "writeOutputSolutionEnabled": "false",
        "bestScoreProblemStatistic": {
          "problemStatisticType": "BEST_SCORE"
        },
        "singleBenchmarkResult": "16",
        "entityCount": "36",
        "variableCount": "36",
        "maximumValueCount": "37",
        "problemScale": "1332",
        "inputSolutionLoadingTimeMillisSpent": "0"
      },
      {
        "name": "Problem_0",
        "instanceProblemProvider": "",
        "writeOutputSolutionEnabled": "false",
        "bestScoreProblemStatistic": {
          "problemStatisticType": "BEST_SCORE"
        },
        "singleBenchmarkResult": "17",
        "entityCount": "36",
        "variableCount": "36",
        "maximumValueCount": "37",
        "problemScale": "1332",
        "inputSolutionLoadingTimeMillisSpent": "0"
      },
      {
        "name": "Problem_0",
        "instanceProblemProvider": "",
        "writeOutputSolutionEnabled": "false",
        "bestScoreProblemStatistic": {
          "problemStatisticType": "BEST_SCORE"
        },
        "singleBenchmarkResult": "18",
        "entityCount": "36",
        "variableCount": "36",
        "maximumValueCount": "37",
        "problemScale": "1332",
        "inputSolutionLoadingTimeMillisSpent": "0"
      },
      {
        "name": "Problem_0",
        "instanceProblemProvider": "",
        "writeOutputSolutionEnabled": "false",
        "bestScoreProblemStatistic": {
          "problemStatisticType": "BEST_SCORE"
        },
        "singleBenchmarkResult": "19",
        "entityCount": "36",
        "variableCount": "36",
        "maximumValueCount": "37",
        "problemScale": "1332",
        "inputSolutionLoadingTimeMillisSpent": "0"
      },
      {
        "name": "Problem_0",
        "instanceProblemProvider": "",
        "writeOutputSolutionEnabled": "false",
        "bestScoreProblemStatistic": {
          "problemStatisticType": "BEST_SCORE"
        },
        "singleBenchmarkResult": "20",
        "entityCount": "36",
        "variableCount": "36",
        "maximumValueCount": "37",
        "problemScale": "1332",
        "inputSolutionLoadingTimeMillisSpent": "0"
      },
      {
        "name": "Problem_0",
        "instanceProblemProvider": "",
        "writeOutputSolutionEnabled": "false",
        "bestScoreProblemStatistic": {
          "problemStatisticType": "BEST_SCORE"
        },
        "singleBenchmarkResult": "21",
        "entityCount": "36",
        "variableCount": "36",
        "maximumValueCount": "37",
        "problemScale": "1332",
        "inputSolutionLoadingTimeMillisSpent": "0"
      },
      {
        "name": "Problem_0",
        "instanceProblemProvider": "",
        "writeOutputSolutionEnabled": "false",
        "bestScoreProblemStatistic": {
          "problemStatisticType": "BEST_SCORE"
        },
        "singleBenchmarkResult": "22",
        "entityCount": "36",
        "variableCount": "36",
        "maximumValueCount": "37",
        "problemScale": "1332",
        "inputSolutionLoadingTimeMillisSpent": "0"
      },
      {
        "name": "Problem_0",
        "instanceProblemProvider": "",
        "writeOutputSolutionEnabled": "false",
        "bestScoreProblemStatistic": {
          "problemStatisticType": "BEST_SCORE"
        },
        "singleBenchmarkResult": "23",
        "entityCount": "36",
        "variableCount": "36",
        "maximumValueCount": "37",
        "problemScale": "1332",
        "inputSolutionLoadingTimeMillisSpent": "0"
      },
      {
        "name": "Problem_0",
        "instanceProblemProvider": "",
        "writeOutputSolutionEnabled": "false",
        "bestScoreProblemStatistic": {
          "problemStatisticType": "BEST_SCORE"
        },
        "singleBenchmarkResult": "24",
        "entityCount": "36",
        "variableCount": "36",
        "maximumValueCount": "37",
        "problemScale": "1332",
        "inputSolutionLoadingTimeMillisSpent": "1"
      },
      {
        "name": "Problem_0",
        "instanceProblemProvider": "",
        "writeOutputSolutionEnabled": "false",
        "bestScoreProblemStatistic": {
          "problemStatisticType": "BEST_SCORE"
        },
        "singleBenchmarkResult": "25",
        "entityCount": "36",
        "variableCount": "36",
        "maximumValueCount": "37",
        "problemScale": "1332",
        "inputSolutionLoadingTimeMillisSpent": "1"
      },
      {
        "name": "Problem_0",
        "instanceProblemProvider": "",
        "writeOutputSolutionEnabled": "false",
        "bestScoreProblemStatistic": {
          "problemStatisticType": "BEST_SCORE"
        },
        "singleBenchmarkResult": "26",
        "entityCount": "36",
        "variableCount": "36",
        "maximumValueCount": "37",
        "problemScale": "1332",
        "inputSolutionLoadingTimeMillisSpent": "1"
      },
      {
        "name": "Problem_0",
        "instanceProblemProvider": "",
        "writeOutputSolutionEnabled": "false",
        "bestScoreProblemStatistic": {
          "problemStatisticType": "BEST_SCORE"
        },
        "singleBenchmarkResult": "27",
        "entityCount": "36",
        "variableCount": "36",
        "maximumValueCount": "37",
        "problemScale": "1332",
        "inputSolutionLoadingTimeMillisSpent": "0"
      },
      {
        "name": "Problem_0",
        "instanceProblemProvider": "",
        "writeOutputSolutionEnabled": "false",
        "bestScoreProblemStatistic": {
          "problemStatisticType": "BEST_SCORE"
        },
        "singleBenchmarkResult": "28",
        "entityCount": "36",
        "variableCount": "36",
        "maximumValueCount": "37",
        "problemScale": "1332",
        "inputSolutionLoadingTimeMillisSpent": "0"
      },
      {
        "name": "Problem_0",
        "instanceProblemProvider": "",
        "writeOutputSolutionEnabled": "false",
        "bestScoreProblemStatistic": {
          "problemStatisticType": "BEST_SCORE"
        },
        "singleBenchmarkResult": "29",
        "entityCount": "36",
        "variableCount": "36",
        "maximumValueCount": "37",
        "problemScale": "1332",
        "inputSolutionLoadingTimeMillisSpent": "0"
      },
      {
        "name": "Problem_0",
        "instanceProblemProvider": "",
        "writeOutputSolutionEnabled": "false",
        "bestScoreProblemStatistic": {
          "problemStatisticType": "BEST_SCORE"
        },
        "singleBenchmarkResult": "30",
        "entityCount": "36",
        "variableCount": "36",
        "maximumValueCount": "37",
        "problemScale": "1332",
        "inputSolutionLoadingTimeMillisSpent": "0"
      },
      {
        "name": "Problem_0",
        "instanceProblemProvider": "",
        "writeOutputSolutionEnabled": "false",
        "bestScoreProblemStatistic": {
          "problemStatisticType": "BEST_SCORE"
        },
        "singleBenchmarkResult": "31",
        "entityCount": "36",
        "variableCount": "36",
        "maximumValueCount": "37",
        "problemScale": "1332",
        "inputSolutionLoadingTimeMillisSpent": "0"
      },
      {
        "name": "Problem_0",
        "instanceProblemProvider": "",
        "writeOutputSolutionEnabled": "false",
        "bestScoreProblemStatistic": {
          "problemStatisticType": "BEST_SCORE"
        },
        "singleBenchmarkResult": "32",
        "entityCount": "36",
        "variableCount": "36",
        "maximumValueCount": "37",
        "problemScale": "1332",
        "inputSolutionLoadingTimeMillisSpent": "0"
      },
      {
        "name": "Problem_0",
        "instanceProblemProvider": "",
        "writeOutputSolutionEnabled": "false",
        "bestScoreProblemStatistic": {
          "problemStatisticType": "BEST_SCORE"
        },
        "singleBenchmarkResult": "33",
        "entityCount": "36",
        "variableCount": "36",
        "maximumValueCount": "37",
        "problemScale": "1332",
        "inputSolutionLoadingTimeMillisSpent": "0"
      },
      {
        "name": "Problem_0",
        "instanceProblemProvider": "",
        "writeOutputSolutionEnabled": "false",
        "bestScoreProblemStatistic": {
          "problemStatisticType": "BEST_SCORE"
        },
        "singleBenchmarkResult": "34",
        "entityCount": "36",
        "variableCount": "36",
        "maximumValueCount": "37",
        "problemScale": "1332",
        "inputSolutionLoadingTimeMillisSpent": "0"
      },
      {
        "name": "Problem_0",
        "instanceProblemProvider": "",
        "writeOutputSolutionEnabled": "false",
        "bestScoreProblemStatistic": {
          "problemStatisticType": "BEST_SCORE"
        },
        "singleBenchmarkResult": "35",
        "entityCount": "36",
        "variableCount": "36",
        "maximumValueCount": "37",
        "problemScale": "1332",
        "inputSolutionLoadingTimeMillisSpent": "0"
      }
    ],
    "startingTimestamp": "2021-07-22T12:47:48.630512519+02:00",
    "benchmarkTimeMillisSpent": "10800452"
  }
}
