{
  "plannerBenchmarkResult": {
    "name": "2021-07-15_145615",
    "aggregation": "false",
    "availableProcessors": "32",
    "loggingLevelOptaPlannerCore": "info",
    "loggingLevelDroolsCore": "info",
    "maxMemory": "32178700288",
    "optaPlannerVersion": "8.2.0.Final",
    "javaVersion": "Java 16.0.1 (Oracle Corporation)",
    "javaVM": "Java OpenJDK 64-Bit Server VM 16.0.1+9-24 (Oracle Corporation)",
    "operatingSystem": "Linux amd64 5.8.0-59-generic",
    "parallelBenchmarkCount": "17",
    "warmUpTimeMillisSpentLimit": "30",
    "solverBenchmarkResult": [
      {
        "name": "Tabu Search Default",
        "subSingleCount": "1",
        "solverConfig": {
          "solutionClass": "ch.fhgr.domain.PathProblem",
          "entityClass": "ch.fhgr.domain.Visit",
          "scoreDirectorFactory": {
            "constraintProviderClass": "ch.fhgr.solver.PathConstraintProvider",
            "initializingScoreTrend": "ONLY_UP"
          },
          "termination": {
            "minutesSpentLimit": "5"
          },
          "constructionHeuristic": {
            "constructionHeuristicType": "STRONGEST_FIT"
          },
          "localSearch": {
            "localSearchType": "TABU_SEARCH"
          }
        },
        "singleBenchmarkResult": {
          "subSingleBenchmarkResult": {
            "subSingleBenchmarkIndex": "0",
            "succeeded": "true",
            "score": {
              "_class": "org.optaplanner.core.api.score.buildin.hardsoftlong.HardSoftLongScore",
              "__text": "0hard/3076300soft"
            },
            "timeMillisSpent": "300000",
            "scoreCalculationCount": "2043100"
          },
          "timeMillisSpent": "-1",
          "scoreCalculationCount": "-1",
          "_id": "1"
        }
      },
      {
        "name": "Tabu Search",
        "subSingleCount": "1",
        "solverConfig": {
          "solutionClass": "ch.fhgr.domain.PathProblem",
          "entityClass": "ch.fhgr.domain.Visit",
          "scoreDirectorFactory": {
            "constraintProviderClass": "ch.fhgr.solver.PathConstraintProvider",
            "initializingScoreTrend": "ONLY_UP"
          },
          "termination": {
            "minutesSpentLimit": "5"
          },
          "constructionHeuristic": {
            "constructionHeuristicType": "STRONGEST_FIT"
          },
          "localSearch": {
            "unionMoveSelector": {
              "changeMoveSelector": "",
              "swapMoveSelector": {
                "cacheType": "STEP",
                "selectionOrder": "SHUFFLED"
              },
              "subChainChangeMoveSelector": {
                "subChainSelector": {
                  "maximumSubChainSize": "40"
                },
                "selectReversingMoveToo": "true"
              }
            },
            "acceptor": {
              "entityTabuSize": "5"
            },
            "forager": {
              "acceptedCountLimit": "5000"
            }
          }
        },
        "singleBenchmarkResult": {
          "subSingleBenchmarkResult": {
            "subSingleBenchmarkIndex": "0",
            "succeeded": "true",
            "score": {
              "_class": "org.optaplanner.core.api.score.buildin.hardsoftlong.HardSoftLongScore",
              "__text": "-1hard/3154200soft"
            },
            "timeMillisSpent": "300000",
            "scoreCalculationCount": "1943899"
          },
          "timeMillisSpent": "-1",
          "scoreCalculationCount": "-1",
          "_id": "2"
        }
      },
      {
        "name": "Hill Climbing Default",
        "subSingleCount": "1",
        "solverConfig": {
          "solutionClass": "ch.fhgr.domain.PathProblem",
          "entityClass": "ch.fhgr.domain.Visit",
          "scoreDirectorFactory": {
            "constraintProviderClass": "ch.fhgr.solver.PathConstraintProvider",
            "initializingScoreTrend": "ONLY_UP"
          },
          "termination": {
            "minutesSpentLimit": "5"
          },
          "constructionHeuristic": {
            "constructionHeuristicType": "STRONGEST_FIT"
          },
          "localSearch": {
            "localSearchType": "HILL_CLIMBING"
          }
        },
        "singleBenchmarkResult": {
          "subSingleBenchmarkResult": {
            "subSingleBenchmarkIndex": "0",
            "succeeded": "true",
            "score": {
              "_class": "org.optaplanner.core.api.score.buildin.hardsoftlong.HardSoftLongScore",
              "__text": "-2hard/3116400soft"
            },
            "timeMillisSpent": "300000",
            "scoreCalculationCount": "2273940"
          },
          "timeMillisSpent": "-1",
          "scoreCalculationCount": "-1",
          "_id": "3"
        }
      },
      {
        "name": "Simulated Annealing",
        "subSingleCount": "1",
        "solverConfig": {
          "solutionClass": "ch.fhgr.domain.PathProblem",
          "entityClass": "ch.fhgr.domain.Visit",
          "scoreDirectorFactory": {
            "constraintProviderClass": "ch.fhgr.solver.PathConstraintProvider",
            "initializingScoreTrend": "ONLY_UP"
          },
          "termination": {
            "minutesSpentLimit": "5"
          },
          "constructionHeuristic": {
            "constructionHeuristicType": "STRONGEST_FIT"
          },
          "localSearch": {
            "acceptor": {
              "simulatedAnnealingStartingTemperature": "0hard/100soft"
            },
            "forager": {
              "acceptedCountLimit": "1"
            }
          }
        },
        "singleBenchmarkResult": {
          "subSingleBenchmarkResult": {
            "subSingleBenchmarkIndex": "0",
            "succeeded": "true",
            "score": {
              "_class": "org.optaplanner.core.api.score.buildin.hardsoftlong.HardSoftLongScore",
              "__text": "-4hard/3196800soft"
            },
            "timeMillisSpent": "300000",
            "scoreCalculationCount": "2024120"
          },
          "timeMillisSpent": "-1",
          "scoreCalculationCount": "-1",
          "_id": "4"
        }
      },
      {
        "name": "Late Acceptance Default",
        "subSingleCount": "1",
        "solverConfig": {
          "solutionClass": "ch.fhgr.domain.PathProblem",
          "entityClass": "ch.fhgr.domain.Visit",
          "scoreDirectorFactory": {
            "constraintProviderClass": "ch.fhgr.solver.PathConstraintProvider",
            "initializingScoreTrend": "ONLY_UP"
          },
          "termination": {
            "minutesSpentLimit": "5"
          },
          "constructionHeuristic": {
            "constructionHeuristicType": "STRONGEST_FIT"
          },
          "localSearch": {
            "localSearchType": "LATE_ACCEPTANCE"
          }
        },
        "singleBenchmarkResult": {
          "subSingleBenchmarkResult": {
            "subSingleBenchmarkIndex": "0",
            "succeeded": "true",
            "score": {
              "_class": "org.optaplanner.core.api.score.buildin.hardsoftlong.HardSoftLongScore",
              "__text": "-2hard/2745000soft"
            },
            "timeMillisSpent": "300000",
            "scoreCalculationCount": "2073236"
          },
          "timeMillisSpent": "-1",
          "scoreCalculationCount": "-1",
          "_id": "5"
        }
      },
      {
        "name": "Step counting hill climbing",
        "subSingleCount": "1",
        "solverConfig": {
          "solutionClass": "ch.fhgr.domain.PathProblem",
          "entityClass": "ch.fhgr.domain.Visit",
          "scoreDirectorFactory": {
            "constraintProviderClass": "ch.fhgr.solver.PathConstraintProvider",
            "initializingScoreTrend": "ONLY_UP"
          },
          "termination": {
            "minutesSpentLimit": "5"
          },
          "constructionHeuristic": {
            "constructionHeuristicType": "STRONGEST_FIT"
          },
          "localSearch": {
            "acceptor": {
              "stepCountingHillClimbingSize": "400"
            },
            "forager": {
              "acceptedCountLimit": "1"
            }
          }
        },
        "singleBenchmarkResult": {
          "subSingleBenchmarkResult": {
            "subSingleBenchmarkIndex": "0",
            "succeeded": "true",
            "score": {
              "_class": "org.optaplanner.core.api.score.buildin.hardsoftlong.HardSoftLongScore",
              "__text": "-3hard/3148300soft"
            },
            "timeMillisSpent": "300000",
            "scoreCalculationCount": "2089633"
          },
          "timeMillisSpent": "-1",
          "scoreCalculationCount": "-1",
          "_id": "6"
        }
      },
      {
        "name": "Strategic oscillation",
        "subSingleCount": "1",
        "solverConfig": {
          "solutionClass": "ch.fhgr.domain.PathProblem",
          "entityClass": "ch.fhgr.domain.Visit",
          "scoreDirectorFactory": {
            "constraintProviderClass": "ch.fhgr.solver.PathConstraintProvider",
            "initializingScoreTrend": "ONLY_UP"
          },
          "termination": {
            "minutesSpentLimit": "5"
          },
          "constructionHeuristic": {
            "constructionHeuristicType": "STRONGEST_FIT"
          },
          "localSearch": {
            "acceptor": {
              "entityTabuSize": "7"
            },
            "forager": {
              "acceptedCountLimit": "1000",
              "finalistPodiumType": "STRATEGIC_OSCILLATION"
            }
          }
        },
        "singleBenchmarkResult": {
          "subSingleBenchmarkResult": {
            "subSingleBenchmarkIndex": "0",
            "succeeded": "true",
            "score": {
              "_class": "org.optaplanner.core.api.score.buildin.hardsoftlong.HardSoftLongScore",
              "__text": "-1hard/3077000soft"
            },
            "timeMillisSpent": "300000",
            "scoreCalculationCount": "2313972"
          },
          "timeMillisSpent": "-1",
          "scoreCalculationCount": "-1",
          "_id": "7"
        }
      },
      {
        "name": "Variable neighborhood descent default",
        "subSingleCount": "1",
        "solverConfig": {
          "solutionClass": "ch.fhgr.domain.PathProblem",
          "entityClass": "ch.fhgr.domain.Visit",
          "scoreDirectorFactory": {
            "constraintProviderClass": "ch.fhgr.solver.PathConstraintProvider",
            "initializingScoreTrend": "ONLY_UP"
          },
          "termination": {
            "minutesSpentLimit": "5"
          },
          "constructionHeuristic": {
            "constructionHeuristicType": "STRONGEST_FIT"
          },
          "localSearch": {
            "localSearchType": "VARIABLE_NEIGHBORHOOD_DESCENT"
          }
        },
        "singleBenchmarkResult": {
          "subSingleBenchmarkResult": {
            "subSingleBenchmarkIndex": "0",
            "succeeded": "true",
            "score": {
              "_class": "org.optaplanner.core.api.score.buildin.hardsoftlong.HardSoftLongScore",
              "__text": "-3hard/3075800soft"
            },
            "timeMillisSpent": "300000",
            "scoreCalculationCount": "2688591"
          },
          "timeMillisSpent": "-1",
          "scoreCalculationCount": "-1",
          "_id": "8"
        }
      }
    ],
    "unifiedProblemBenchmarkResult": [
      {
        "name": "Problem_0",
        "instanceProblemProvider": "",
        "writeOutputSolutionEnabled": "false",
        "bestScoreProblemStatistic": {
          "problemStatisticType": "BEST_SCORE"
        },
        "singleBenchmarkResult": "1",
        "entityCount": "36",
        "variableCount": "36",
        "maximumValueCount": "37",
        "problemScale": "1332",
        "inputSolutionLoadingTimeMillisSpent": "0"
      },
      {
        "name": "Problem_0",
        "instanceProblemProvider": "",
        "writeOutputSolutionEnabled": "false",
        "bestScoreProblemStatistic": {
          "problemStatisticType": "BEST_SCORE"
        },
        "singleBenchmarkResult": "2",
        "entityCount": "36",
        "variableCount": "36",
        "maximumValueCount": "37",
        "problemScale": "1332",
        "inputSolutionLoadingTimeMillisSpent": "0"
      },
      {
        "name": "Problem_0",
        "instanceProblemProvider": "",
        "writeOutputSolutionEnabled": "false",
        "bestScoreProblemStatistic": {
          "problemStatisticType": "BEST_SCORE"
        },
        "singleBenchmarkResult": "3",
        "entityCount": "36",
        "variableCount": "36",
        "maximumValueCount": "37",
        "problemScale": "1332",
        "inputSolutionLoadingTimeMillisSpent": "0"
      },
      {
        "name": "Problem_0",
        "instanceProblemProvider": "",
        "writeOutputSolutionEnabled": "false",
        "bestScoreProblemStatistic": {
          "problemStatisticType": "BEST_SCORE"
        },
        "singleBenchmarkResult": "4",
        "entityCount": "36",
        "variableCount": "36",
        "maximumValueCount": "37",
        "problemScale": "1332",
        "inputSolutionLoadingTimeMillisSpent": "0"
      },
      {
        "name": "Problem_0",
        "instanceProblemProvider": "",
        "writeOutputSolutionEnabled": "false",
        "bestScoreProblemStatistic": {
          "problemStatisticType": "BEST_SCORE"
        },
        "singleBenchmarkResult": "5",
        "entityCount": "36",
        "variableCount": "36",
        "maximumValueCount": "37",
        "problemScale": "1332",
        "inputSolutionLoadingTimeMillisSpent": "1"
      },
      {
        "name": "Problem_0",
        "instanceProblemProvider": "",
        "writeOutputSolutionEnabled": "false",
        "bestScoreProblemStatistic": {
          "problemStatisticType": "BEST_SCORE"
        },
        "singleBenchmarkResult": "6",
        "entityCount": "36",
        "variableCount": "36",
        "maximumValueCount": "37",
        "problemScale": "1332",
        "inputSolutionLoadingTimeMillisSpent": "1"
      },
      {
        "name": "Problem_0",
        "instanceProblemProvider": "",
        "writeOutputSolutionEnabled": "false",
        "bestScoreProblemStatistic": {
          "problemStatisticType": "BEST_SCORE"
        },
        "singleBenchmarkResult": "7",
        "entityCount": "36",
        "variableCount": "36",
        "maximumValueCount": "37",
        "problemScale": "1332",
        "inputSolutionLoadingTimeMillisSpent": "0"
      },
      {
        "name": "Problem_0",
        "instanceProblemProvider": "",
        "writeOutputSolutionEnabled": "false",
        "bestScoreProblemStatistic": {
          "problemStatisticType": "BEST_SCORE"
        },
        "singleBenchmarkResult": "8",
        "entityCount": "36",
        "variableCount": "36",
        "maximumValueCount": "37",
        "problemScale": "1332",
        "inputSolutionLoadingTimeMillisSpent": "0"
      }
    ],
    "startingTimestamp": "2021-07-15T14:56:15.259987484+02:00",
    "benchmarkTimeMillisSpent": "300114"
  }
}
