{
  "data": [
    ["CUSTOM - STRONGEST_FIT - LATE_ACCEPTANCE", "0", "6134500"],
    ["FIRST_FIT - HILL_CLIMBING", "6", "6596800"],
    ["FIRST_FIT - TABU_SEARCH", "2", "6743500"],
    ["FIRST_FIT - LATE_ACCEPTANCE", "6", "6172200"],
    ["FIRST_FIT - GREAT_DELUGE", "5", "5788200"],
    ["FIRST_FIT - VARIABLE_NEIGHBORHOOD_DESCENT", "5", "5699300"],
    ["FIRST_FIT_DECREASING - HILL_CLIMBING", "5", "5470000"],
    ["FIRST_FIT_DECREASING - TABU_SEARCH", "2", "6711800"],
    ["FIRST_FIT_DECREASING - LATE_ACCEPTANCE", "6", "6283100"],
    ["FIRST_FIT_DECREASING - GREAT_DELUGE", "9", "4940800"],
    ["FIRST_FIT_DECREASING - VARIABLE_NEIGHBORHOOD_DESCENT", "5", "5435700"],
    ["WEAKEST_FIT - HILL_CLIMBING", "8", "6538300"],
    ["WEAKEST_FIT - TABU_SEARCH", "2", "6677800"],
    ["WEAKEST_FIT - LATE_ACCEPTANCE", "5", "5511500"],
    ["WEAKEST_FIT - GREAT_DELUGE", "12", "4885600"],
    ["WEAKEST_FIT - VARIABLE_NEIGHBORHOOD_DESCENT", "6", "6038200"],
    ["WEAKEST_FIT_DECREASING - HILL_CLIMBING", "10", "5671500"],
    ["WEAKEST_FIT_DECREASING - TABU_SEARCH", "2", "6506500"],
    ["WEAKEST_FIT_DECREASING - LATE_ACCEPTANCE", "4", "6270200"],
    ["WEAKEST_FIT_DECREASING - GREAT_DELUGE", "28", "3186900"],
    ["WEAKEST_FIT_DECREASING - VARIABLE_NEIGHBORHOOD_DESCENT", "7", "5677800"],
    ["STRONGEST_FIT - HILL_CLIMBING", "8", "6538300"],
    ["STRONGEST_FIT - TABU_SEARCH", "2", "6677800"],
    ["STRONGEST_FIT - LATE_ACCEPTANCE", "5", "5511500"],
    ["STRONGEST_FIT - GREAT_DELUGE", "12", "4885600"],
    ["STRONGEST_FIT - VARIABLE_NEIGHBORHOOD_DESCENT", "6", "6038200"],
    ["STRONGEST_FIT_DECREASING - HILL_CLIMBING", "10", "5671500"],
    ["STRONGEST_FIT_DECREASING - TABU_SEARCH", "2", "6506500"],
    ["STRONGEST_FIT_DECREASING - LATE_ACCEPTANCE", "4", "6270200"],
    ["STRONGEST_FIT_DECREASING - GREAT_DELUGE", "30", "3639300"],
    ["STRONGEST_FIT_DECREASING - VARIABLE_NEIGHBORHOOD_DESCENT", "7", "5677800"],
    ["CHEAPEST_INSERTION - HILL_CLIMBING", "5", "5491300"],
    ["CHEAPEST_INSERTION - TABU_SEARCH", "2", "6066000"],
    ["CHEAPEST_INSERTION - LATE_ACCEPTANCE", "4", "5396000"],
    ["CHEAPEST_INSERTION - GREAT_DELUGE", "3", "5761900"],
    ["CHEAPEST_INSERTION - VARIABLE_NEIGHBORHOOD_DESCENT", "5", "5491300"]
  ]
}
