{
  "data": [
    ["CUSTOM - STRONGEST_FIT - LATE_ACCEPTANCE", "0", "3076300"],
    ["FIRST_FIT - HILL_CLIMBING", "3", "2967300"],
    ["FIRST_FIT - TABU_SEARCH", "1", "3184600"],
    ["FIRST_FIT - LATE_ACCEPTANCE", "3", "3083100"],
    ["FIRST_FIT - GREAT_DELUGE", "1", "2567500"],
    ["FIRST_FIT - VARIABLE_NEIGHBORHOOD_DESCENT", "5", "3007400"],
    ["FIRST_FIT_DECREASING - HILL_CLIMBING", "5", "2787700"],
    ["FIRST_FIT_DECREASING - TABU_SEARCH", "1", "3184600"],
    ["FIRST_FIT_DECREASING - LATE_ACCEPTANCE", "2", "2750300"],
    ["FIRST_FIT_DECREASING - GREAT_DELUGE", "2", "2946900"],
    ["FIRST_FIT_DECREASING - VARIABLE_NEIGHBORHOOD_DESCENT", "6", "2698200"],
    ["WEAKEST_FIT - HILL_CLIMBING", "2", "3116400"],
    ["WEAKEST_FIT - TABU_SEARCH", "0", "3076300"],
    ["WEAKEST_FIT - LATE_ACCEPTANCE", "2", "2745000"],
    ["WEAKEST_FIT - GREAT_DELUGE", "3", "3122900"],
    ["WEAKEST_FIT - VARIABLE_NEIGHBORHOOD_DESCENT", "3", "3075800"],
    ["WEAKEST_FIT_DECREASING - HILL_CLIMBING", "7", "2856200"],
    ["WEAKEST_FIT_DECREASING - TABU_SEARCH", "1", "3184600"],
    ["WEAKEST_FIT_DECREASING - LATE_ACCEPTANCE", "3", "2909100"],
    ["WEAKEST_FIT_DECREASING - GREAT_DELUGE", "20", "1613400"],
    ["WEAKEST_FIT_DECREASING - VARIABLE_NEIGHBORHOOD_DESCENT", "6", "2974100"],
    ["STRONGEST_FIT - HILL_CLIMBING", "2", "3116400"],
    ["STRONGEST_FIT - TABU_SEARCH", "0", "3076300"],
    ["STRONGEST_FIT - LATE_ACCEPTANCE", "2", "2745000"],
    ["STRONGEST_FIT - GREAT_DELUGE", "3", "3122900"],
    ["STRONGEST_FIT - VARIABLE_NEIGHBORHOOD_DESCENT", "3", "3075800"],
    ["STRONGEST_FIT_DECREASING - HILL_CLIMBING", "7", "2856200"],
    ["STRONGEST_FIT_DECREASING - TABU_SEARCH", "1", "3164000"],
    ["STRONGEST_FIT_DECREASING - LATE_ACCEPTANCE", "3", "2909100"],
    ["STRONGEST_FIT_DECREASING - GREAT_DELUGE", "20", "1613400"],
    ["STRONGEST_FIT_DECREASING - VARIABLE_NEIGHBORHOOD_DESCENT", "6", "2974100"],
    ["CHEAPEST_INSERTION - HILL_CLIMBING", "5", "3123000"],
    ["CHEAPEST_INSERTION - TABU_SEARCH", "1", "3184600"],
    ["CHEAPEST_INSERTION - LATE_ACCEPTANCE", "3", "2941300"],
    ["CHEAPEST_INSERTION - GREAT_DELUGE", "3", "2895300"],
    ["CHEAPEST_INSERTION - VARIABLE_NEIGHBORHOOD_DESCENT", "5", "3123000"]
  ]
}
